{
    "applications": {
        "Connected Worldwide": {
            "applicationId": "yGFjG43FXdtKlMEMK9CCQc7lJjua6wsWvgvZLnIM", 
            "masterKey": "WVW3KAars5KHAZoXh4qYJkPbvH2D1eabfcqHc9oZ"
        }, 
        "_default": {
            "link": "Connected Worldwide"
        }
    }, 
    "global": {
        "parseVersion": "1.3.4"
    }
}